{
  "login": {
    "generator": {
      "method": "increment",
      "username": "user",
      "password": "pw"
    },
    "server": "127.0.0.1",
    "method": {
      "name": "sequential",
      "delay": 500
    }
  },
  "count": 1,
  "behavior": {
    "method": "sequence",
    "repeat": false,
    "children": [
      {
        "method": "message",
        "message": "/b ch fire"
      },
      {
        "method": "delay",
        "delay": 1000
      },
      {
        "method": "message",
        "message": "/b b fireshots"
      },
      {
        "method": "sequence",
        "repeat": true,
        "children": [
          {
            "method": "sneak",
            "start": true
          },
          {
            "method": "delay",
            "delay": 500
          },
          {
            "method": "sneak",
            "stop": true
          },
          {
            "method": "delay",
            "delay": 500
          },
          {
            "method": "swing",
            "attack": true
          },
          {
            "method": "delay",
            "delay": 1500
          },
          {
            "method": "swing",
            "attack": true
          },
          {
            "method": "delay",
            "delay": 1500
          },
          {
            "method": "swing",
            "attack": true
          },
          {
            "method": "delay",
            "delay": 1500
          },
          {
            "method": "swing",
            "attack": true
          },
          {
            "method": "delay",
            "delay": 5000
          }
        ]
      }
    ]
  }
}
