{
  "login": {
    "generator": {
      "method": "increment",
      "username": "user",
      "password": "pw"
    },
    "server": "127.0.0.1",
    "method": {
      "name": "flood",
      "delay": 0
    }
  },
  "count": 1,
  "behavior": {
    "method": "sequence",
    "repeat": false,
    "children": [
      {
        "method": "delay",
        "delay": 1000
      },
      {
        "method": "message",
        "message": "/b ch fire"
      },
      {
        "method": "delay",
        "delay": 1000
      },
      {
        "method": "message",
        "message": "/b b heatcontrol"
      },
      {
        "method": "sequence",
        "repeat": true,
        "children": [
          {
            "method": "swing",
            "attack": true
          }
        ]
      }
    ]
  }
}
